0, 7c30f7291fd8, eaa0aa669228a0d5e6a8df38d649234c, 8a46c7fafc0d7808299c118f9d8a6d6e
0, c555acd3b5ab, eaa0aa669228a0d5e6a8df38d649234c, 8a46c7fafc0d7808299c118f9d8a6d6e
0, 5abdb2a7ae3a, eaa0aa669228a0d5e6a8df38d649234c, 8a46c7fafc0d7808299c118f9d8a6d6e
0, 986ff2c2f48a, eaa0aa669228a0d5e6a8df38d649234c, 8a46c7fafc0d7808299c118f9d8a6d6e
0, b371f1af56d9, eaa0aa669228a0d5e6a8df38d649234c, 8a46c7fafc0d7808299c118f9d8a6d6e
